<?xml version="1.0" encoding="UTF-8" standalone="no"?>
<!-- Created with Inkscape (http://www.inkscape.org/) -->

<svg
   xmlns:dc="http://purl.org/dc/elements/1.1/"
   xmlns:cc="http://creativecommons.org/ns#"
   xmlns:rdf="http://www.w3.org/1999/02/22-rdf-syntax-ns#"
   xmlns:svg="http://www.w3.org/2000/svg"
   xmlns="http://www.w3.org/2000/svg"
   xmlns:sodipodi="http://sodipodi.sourceforge.net/DTD/sodipodi-0.dtd"
   xmlns:inkscape="http://www.inkscape.org/namespaces/inkscape"
   width="465"
   height="280"
   id="svg5378"
   version="1.1"
   inkscape:version="0.92.4 (unknown)"
   sodipodi:docname="drzewo.svg"
   inkscape:export-filename="/home/an/workspace/us/courses-notebooks/courses-notebooks/Algorytmy i struktury danych/images/drzewo.png"
   inkscape:export-xdpi="101.56"
   inkscape:export-ydpi="101.56">
  <defs
     id="defs5380">
    <inkscape:path-effect
       effect="spiro"
       id="path-effect6055"
       is_visible="true" />
    <inkscape:path-effect
       effect="spiro"
       id="path-effect6051"
       is_visible="true" />
    <inkscape:path-effect
       effect="spiro"
       id="path-effect6047"
       is_visible="true" />
    <inkscape:path-effect
       effect="spiro"
       id="path-effect6043"
       is_visible="true" />
    <inkscape:path-effect
       effect="spiro"
       id="path-effect5939"
       is_visible="true" />
    <inkscape:path-effect
       effect="spiro"
       id="path-effect5935"
       is_visible="true" />
    <inkscape:path-effect
       effect="spiro"
       id="path-effect5931"
       is_visible="true" />
    <inkscape:path-effect
       effect="spiro"
       id="path-effect5927"
       is_visible="true" />
    <inkscape:path-effect
       effect="spiro"
       id="path-effect5923"
       is_visible="true" />
    <inkscape:path-effect
       effect="spiro"
       id="path-effect5919"
       is_visible="true" />
    <inkscape:path-effect
       effect="spiro"
       id="path-effect5915"
       is_visible="true" />
    <inkscape:perspective
       sodipodi:type="inkscape:persp3d"
       inkscape:vp_x="0 : 526.18109 : 1"
       inkscape:vp_y="0 : 1000 : 0"
       inkscape:vp_z="744.09448 : 526.18109 : 1"
       inkscape:persp3d-origin="372.04724 : 350.78739 : 1"
       id="perspective5386" />
    <inkscape:perspective
       id="perspective5396"
       inkscape:persp3d-origin="0.5 : 0.33333333 : 1"
       inkscape:vp_z="1 : 0.5 : 1"
       inkscape:vp_y="0 : 1000 : 0"
       inkscape:vp_x="0 : 0.5 : 1"
       sodipodi:type="inkscape:persp3d" />
  </defs>
  <sodipodi:namedview
     id="base"
     pagecolor="#ffffff"
     bordercolor="#666666"
     borderopacity="1.0"
     inkscape:pageopacity="0.0"
     inkscape:pageshadow="2"
     inkscape:zoom="1.4470435"
     inkscape:cx="214.35426"
     inkscape:cy="119.92584"
     inkscape:document-units="px"
     inkscape:current-layer="g6057"
     showgrid="false"
     inkscape:window-width="1920"
     inkscape:window-height="1031"
     inkscape:window-x="0"
     inkscape:window-y="0"
     inkscape:window-maximized="1" />
  <metadata
     id="metadata5383">
    <rdf:RDF>
      <cc:Work
         rdf:about="">
        <dc:format>image/svg+xml</dc:format>
        <dc:type
           rdf:resource="http://purl.org/dc/dcmitype/StillImage" />
        <dc:title />
      </cc:Work>
    </rdf:RDF>
  </metadata>
  <g
     inkscape:groupmode="layer"
     id="layer5"
     inkscape:label="rys"
     style="display:inline">
    <g
       id="g6057"
       transform="translate(-5.359439,-3.7353715)">
      <path
         inkscape:original-d="M 276.09075,34.69459 389.94764,184.71204 333.75218,259.9651"
         inkscape:path-effect="#path-effect5915"
         id="path5913"
         d="M 276.09075,34.69459 389.94764,184.71204 333.75218,259.9651"
         style="fill:none;stroke:#ff0000;stroke-width:1px;stroke-linecap:butt;stroke-linejoin:miter;stroke-opacity:1" />
      <path
         inkscape:original-d="M 278.04538,31.762653 161.25654,184.22339"
         inkscape:path-effect="#path-effect5919"
         id="path5917"
         d="M 278.04538,31.762653 161.25654,184.22339"
         style="fill:none;stroke:#000000;stroke-width:1px;stroke-linecap:butt;stroke-linejoin:miter;stroke-opacity:1" />
      <path
         inkscape:original-d="m 331.3089,108.48168 0.48866,75.25305 -57.17278,76.71902"
         inkscape:path-effect="#path-effect5923"
         id="path5921"
         d="m 331.3089,108.48168 0.48866,75.25305 -57.17278,76.71902"
         style="fill:none;stroke:#000000;stroke-width:1px;stroke-linecap:butt;stroke-linejoin:miter;stroke-opacity:1" />
      <path
         inkscape:original-d="m 389.94764,184.71204 54.24084,74.7644"
         inkscape:path-effect="#path-effect5927"
         id="path5925"
         d="m 389.94764,184.71204 54.24084,74.7644"
         style="fill:none;stroke:#000000;stroke-width:1px;stroke-linecap:butt;stroke-linejoin:miter;stroke-opacity:1" />
      <path
         inkscape:original-d="m 275.11344,34.205934 0,70.366496"
         inkscape:path-effect="#path-effect5931"
         id="path5929"
         d="M 275.11344,34.205934 V 104.57243"
         style="fill:none;stroke:#000000;stroke-width:1px;stroke-linecap:butt;stroke-linejoin:miter;stroke-opacity:1" />
      <path
         inkscape:original-d="m 220.8726,107.50436 0,78.18499"
         inkscape:path-effect="#path-effect5935"
         id="path5933"
         d="m 220.8726,107.50436 v 78.18499"
         style="fill:none;stroke:#000000;stroke-width:1px;stroke-linecap:butt;stroke-linejoin:miter;stroke-opacity:1" />
      <path
         inkscape:original-d="m 389.94764,185.2007 0,73.29843"
         inkscape:path-effect="#path-effect5939"
         id="path5937"
         d="m 389.94764,185.2007 v 73.29843"
         style="fill:none;stroke:#000000;stroke-width:1px;stroke-linecap:butt;stroke-linejoin:miter;stroke-opacity:1" />
      <circle
         id="path5941"
         style="fill:#5ec8b1;fill-opacity:1;fill-rule:nonzero;stroke:#000000;stroke-width:1;stroke-linecap:round;stroke-linejoin:round;stroke-miterlimit:4;stroke-opacity:1;stroke-dasharray:none;stroke-dashoffset:0"
         d="m 294.65967,33.717278 c 0,10.525217 -8.53237,19.057592 -19.05759,19.057592 -10.52522,0 -19.05759,-8.532375 -19.05759,-19.057592 0,-10.525218 8.53237,-19.057593 19.05759,-19.057593 10.52522,0 19.05759,8.532375 19.05759,19.057593 z"
         sodipodi:type="arc"
         sodipodi:ry="19.057592"
         sodipodi:rx="19.057592"
         sodipodi:cy="33.717278"
         sodipodi:cx="275.60208" />
      <path
         transform="translate(56.684119,75.253052)"
         sodipodi:type="arc"
         style="fill:#ffffff;fill-opacity:1;fill-rule:nonzero;stroke:#000000;stroke-width:1;stroke-linecap:round;stroke-linejoin:round;stroke-miterlimit:4;stroke-opacity:1;stroke-dasharray:none;stroke-dashoffset:0"
         id="path5943"
         sodipodi:cx="275.60208"
         sodipodi:cy="33.717278"
         sodipodi:rx="19.057592"
         sodipodi:ry="19.057592"
         d="m 294.65967,33.717278 c 0,10.525217 -8.53237,19.057592 -19.05759,19.057592 -10.52522,0 -19.05759,-8.532375 -19.05759,-19.057592 0,-10.525218 8.53237,-19.057593 19.05759,-19.057593 10.52522,0 19.05759,8.532375 19.05759,19.057593 z" />
      <path
         d="m 294.65967,33.717278 c 0,10.525217 -8.53237,19.057592 -19.05759,19.057592 -10.52522,0 -19.05759,-8.532375 -19.05759,-19.057592 0,-10.525218 8.53237,-19.057593 19.05759,-19.057593 10.52522,0 19.05759,8.532375 19.05759,19.057593 z"
         sodipodi:ry="19.057592"
         sodipodi:rx="19.057592"
         sodipodi:cy="33.717278"
         sodipodi:cx="275.60208"
         id="path5945"
         style="fill:#ffffff;fill-opacity:1;fill-rule:nonzero;stroke:#000000;stroke-width:1;stroke-linecap:round;stroke-linejoin:round;stroke-miterlimit:4;stroke-opacity:1;stroke-dasharray:none;stroke-dashoffset:0"
         sodipodi:type="arc"
         transform="translate(114.34555,150.01745)" />
      <path
         transform="translate(-55.706806,75.253052)"
         sodipodi:type="arc"
         style="fill:#ffffff;fill-opacity:1;fill-rule:nonzero;stroke:#000000;stroke-width:1;stroke-linecap:round;stroke-linejoin:round;stroke-miterlimit:4;stroke-opacity:1;stroke-dasharray:none;stroke-dashoffset:0"
         id="path5947"
         sodipodi:cx="275.60208"
         sodipodi:cy="33.717278"
         sodipodi:rx="19.057592"
         sodipodi:ry="19.057592"
         d="m 294.65967,33.717278 c 0,10.525217 -8.53237,19.057592 -19.05759,19.057592 -10.52522,0 -19.05759,-8.532375 -19.05759,-19.057592 0,-10.525218 8.53237,-19.057593 19.05759,-19.057593 10.52522,0 19.05759,8.532375 19.05759,19.057593 z" />
      <path
         d="m 294.65967,33.717278 c 0,10.525217 -8.53237,19.057592 -19.05759,19.057592 -10.52522,0 -19.05759,-8.532375 -19.05759,-19.057592 0,-10.525218 8.53237,-19.057593 19.05759,-19.057593 10.52522,0 19.05759,8.532375 19.05759,19.057593 z"
         sodipodi:ry="19.057592"
         sodipodi:rx="19.057592"
         sodipodi:cy="33.717278"
         sodipodi:cx="275.60208"
         id="path5949"
         style="fill:#9ceaf7;fill-opacity:1;fill-rule:nonzero;stroke:#000000;stroke-width:1;stroke-linecap:round;stroke-linejoin:round;stroke-miterlimit:4;stroke-opacity:1;stroke-dasharray:none;stroke-dashoffset:0"
         sodipodi:type="arc"
         transform="translate(2.8272251e-7,75.253052)" />
      <path
         transform="translate(-55.706806,150.01745)"
         sodipodi:type="arc"
         style="fill:#9ceaf7;fill-opacity:1;fill-rule:nonzero;stroke:#000000;stroke-width:1;stroke-linecap:round;stroke-linejoin:round;stroke-miterlimit:4;stroke-opacity:1;stroke-dasharray:none;stroke-dashoffset:0"
         id="path5951"
         sodipodi:cx="275.60208"
         sodipodi:cy="33.717278"
         sodipodi:rx="19.057592"
         sodipodi:ry="19.057592"
         d="m 294.65967,33.717278 c 0,10.525217 -8.53237,19.057592 -19.05759,19.057592 -10.52522,0 -19.05759,-8.532375 -19.05759,-19.057592 0,-10.525218 8.53237,-19.057593 19.05759,-19.057593 10.52522,0 19.05759,8.532375 19.05759,19.057593 z" />
      <path
         d="m 294.65967,33.717278 c 0,10.525217 -8.53237,19.057592 -19.05759,19.057592 -10.52522,0 -19.05759,-8.532375 -19.05759,-19.057592 0,-10.525218 8.53237,-19.057593 19.05759,-19.057593 10.52522,0 19.05759,8.532375 19.05759,19.057593 z"
         sodipodi:ry="19.057592"
         sodipodi:rx="19.057592"
         sodipodi:cy="33.717278"
         sodipodi:cx="275.60208"
         id="path5953"
         style="fill:#9ceaf7;fill-opacity:1;fill-rule:nonzero;stroke:#000000;stroke-width:1;stroke-linecap:round;stroke-linejoin:round;stroke-miterlimit:4;stroke-opacity:1;stroke-dasharray:none;stroke-dashoffset:0"
         sodipodi:type="arc"
         transform="translate(-113.36824,150.01745)" />
      <path
         transform="translate(56.684119,150.01745)"
         sodipodi:type="arc"
         style="fill:#ffffff;fill-opacity:1;fill-rule:nonzero;stroke:#000000;stroke-width:1;stroke-linecap:round;stroke-linejoin:round;stroke-miterlimit:4;stroke-opacity:1;stroke-dasharray:none;stroke-dashoffset:0"
         id="path5955"
         sodipodi:cx="275.60208"
         sodipodi:cy="33.717278"
         sodipodi:rx="19.057592"
         sodipodi:ry="19.057592"
         d="m 294.65967,33.717278 c 0,10.525217 -8.53237,19.057592 -19.05759,19.057592 -10.52522,0 -19.05759,-8.532375 -19.05759,-19.057592 0,-10.525218 8.53237,-19.057593 19.05759,-19.057593 10.52522,0 19.05759,8.532375 19.05759,19.057593 z" />
      <path
         d="m 294.65967,33.717278 c 0,10.525217 -8.53237,19.057592 -19.05759,19.057592 -10.52522,0 -19.05759,-8.532375 -19.05759,-19.057592 0,-10.525218 8.53237,-19.057593 19.05759,-19.057593 10.52522,0 19.05759,8.532375 19.05759,19.057593 z"
         sodipodi:ry="19.057592"
         sodipodi:rx="19.057592"
         sodipodi:cy="33.717278"
         sodipodi:cx="275.60208"
         id="path5957"
         style="fill:#9ceaf7;fill-opacity:1;fill-rule:nonzero;stroke:#000000;stroke-width:1;stroke-linecap:round;stroke-linejoin:round;stroke-miterlimit:4;stroke-opacity:1;stroke-dasharray:none;stroke-dashoffset:0"
         sodipodi:type="arc"
         transform="translate(0.97731267,227.22513)" />
      <path
         transform="translate(57.172788,227.22513)"
         sodipodi:type="arc"
         style="fill:#9ceaf7;fill-opacity:1;fill-rule:nonzero;stroke:#000000;stroke-width:1;stroke-linecap:round;stroke-linejoin:round;stroke-miterlimit:4;stroke-opacity:1;stroke-dasharray:none;stroke-dashoffset:0"
         id="path5959"
         sodipodi:cx="275.60208"
         sodipodi:cy="33.717278"
         sodipodi:rx="19.057592"
         sodipodi:ry="19.057592"
         d="m 294.65967,33.717278 c 0,10.525217 -8.53237,19.057592 -19.05759,19.057592 -10.52522,0 -19.05759,-8.532375 -19.05759,-19.057592 0,-10.525218 8.53237,-19.057593 19.05759,-19.057593 10.52522,0 19.05759,8.532375 19.05759,19.057593 z" />
      <path
         d="m 294.65967,33.717278 c 0,10.525217 -8.53237,19.057592 -19.05759,19.057592 -10.52522,0 -19.05759,-8.532375 -19.05759,-19.057592 0,-10.525218 8.53237,-19.057593 19.05759,-19.057593 10.52522,0 19.05759,8.532375 19.05759,19.057593 z"
         sodipodi:ry="19.057592"
         sodipodi:rx="19.057592"
         sodipodi:cy="33.717278"
         sodipodi:cx="275.60208"
         id="path5961"
         style="fill:#9ceaf7;fill-opacity:1;fill-rule:nonzero;stroke:#000000;stroke-width:1;stroke-linecap:round;stroke-linejoin:round;stroke-miterlimit:4;stroke-opacity:1;stroke-dasharray:none;stroke-dashoffset:0"
         sodipodi:type="arc"
         transform="translate(113.36826,227.22513)" />
      <path
         transform="translate(169.5637,227.22513)"
         sodipodi:type="arc"
         style="fill:#9ceaf7;fill-opacity:1;fill-rule:nonzero;stroke:#000000;stroke-width:1;stroke-linecap:round;stroke-linejoin:round;stroke-miterlimit:4;stroke-opacity:1;stroke-dasharray:none;stroke-dashoffset:0"
         id="path5963"
         sodipodi:cx="275.60208"
         sodipodi:cy="33.717278"
         sodipodi:rx="19.057592"
         sodipodi:ry="19.057592"
         d="m 294.65967,33.717278 c 0,10.525217 -8.53237,19.057592 -19.05759,19.057592 -10.52522,0 -19.05759,-8.532375 -19.05759,-19.057592 0,-10.525218 8.53237,-19.057593 19.05759,-19.057593 10.52522,0 19.05759,8.532375 19.05759,19.057593 z" />
      <text
         id="text5965"
         y="39.812492"
         x="269.13333"
         style="font-style:normal;font-weight:normal;line-height:0%;font-family:'Times New Roman';-inkscape-font-specification:'Times New Roman';fill:#000000;fill-opacity:1;stroke:none"
         xml:space="preserve"><tspan
           y="39.812492"
           x="269.13333"
           id="tspan5967"
           sodipodi:role="line"
           style="font-size:18px;line-height:1.25">A</tspan></text>
      <text
         id="text5969"
         y="114.92931"
         x="214.23512"
         style="font-style:normal;font-weight:normal;line-height:0%;font-family:'Times New Roman';-inkscape-font-specification:'Times New Roman';fill:#000000;fill-opacity:1;stroke:none"
         xml:space="preserve"><tspan
           y="114.92931"
           x="214.23512"
           id="tspan5971"
           sodipodi:role="line"
           style="font-size:18px;line-height:1.25">B</tspan></text>
      <text
         id="text5973"
         y="114.92931"
         x="269.58597"
         style="font-style:normal;font-weight:normal;line-height:0%;font-family:'Times New Roman';-inkscape-font-specification:'Times New Roman';fill:#000000;fill-opacity:1;stroke:none"
         xml:space="preserve"><tspan
           y="114.92931"
           x="269.58597"
           id="tspan5975"
           sodipodi:role="line"
           style="font-size:18px;line-height:1.25">C</tspan></text>
      <text
         id="text5977"
         y="114.92931"
         x="325.97565"
         style="font-style:normal;font-weight:normal;line-height:0%;font-family:'Times New Roman';-inkscape-font-specification:'Times New Roman';fill:#000000;fill-opacity:1;stroke:none"
         xml:space="preserve"><tspan
           y="114.92931"
           x="325.97565"
           id="tspan5979"
           sodipodi:role="line"
           style="font-size:18px;line-height:1.25">D</tspan></text>
      <text
         id="text5981"
         y="189.69371"
         x="156.75826"
         style="font-style:normal;font-weight:normal;line-height:0%;font-family:'Times New Roman';-inkscape-font-specification:'Times New Roman';fill:#000000;fill-opacity:1;stroke:none"
         xml:space="preserve"><tspan
           y="189.69371"
           x="156.75826"
           id="tspan5983"
           sodipodi:role="line"
           style="font-size:18px;line-height:1.25">E</tspan></text>
      <text
         id="text5985"
         y="189.69371"
         x="215.11403"
         style="font-style:normal;font-weight:normal;line-height:0%;font-family:'Times New Roman';-inkscape-font-specification:'Times New Roman';fill:#000000;fill-opacity:1;stroke:none"
         xml:space="preserve"><tspan
           y="189.69371"
           x="215.11403"
           id="tspan5987"
           sodipodi:role="line"
           style="font-size:18px;line-height:1.25">F</tspan></text>
      <text
         id="text5989"
         y="189.69371"
         x="325.59772"
         style="font-style:normal;font-weight:normal;line-height:0%;font-family:'Times New Roman';-inkscape-font-specification:'Times New Roman';fill:#000000;fill-opacity:1;stroke:none"
         xml:space="preserve"><tspan
           y="189.69371"
           x="325.59772"
           id="tspan5991"
           sodipodi:role="line"
           style="font-size:18px;line-height:1.25">G</tspan></text>
      <text
         id="text5993"
         y="189.69371"
         x="383.47888"
         style="font-style:normal;font-weight:normal;line-height:0%;font-family:'Times New Roman';-inkscape-font-specification:'Times New Roman';fill:#000000;fill-opacity:1;stroke:none"
         xml:space="preserve"><tspan
           y="189.69371"
           x="383.47888"
           id="tspan5995"
           sodipodi:role="line"
           style="font-size:18px;line-height:1.25">H</tspan></text>
      <text
         id="text5997"
         y="266.9014"
         x="273.57794"
         style="font-style:normal;font-weight:normal;line-height:0%;font-family:'Times New Roman';-inkscape-font-specification:'Times New Roman';fill:#000000;fill-opacity:1;stroke:none"
         xml:space="preserve"><tspan
           y="266.9014"
           x="273.57794"
           id="tspan5999"
           sodipodi:role="line"
           style="font-size:18px;line-height:1.25">I</tspan></text>
      <text
         id="text6001"
         y="266.76517"
         x="329.14059"
         style="font-style:normal;font-weight:normal;line-height:0%;font-family:'Times New Roman';-inkscape-font-specification:'Times New Roman';fill:#000000;fill-opacity:1;stroke:none"
         xml:space="preserve"><tspan
           y="266.76517"
           x="329.14059"
           id="tspan6003"
           sodipodi:role="line"
           style="font-size:18px;line-height:1.25">J</tspan></text>
      <text
         id="text6005"
         y="266.9014"
         x="382.2467"
         style="font-style:normal;font-weight:normal;line-height:0%;font-family:'Times New Roman';-inkscape-font-specification:'Times New Roman';fill:#000000;fill-opacity:1;stroke:none"
         xml:space="preserve"><tspan
           y="266.9014"
           x="382.2467"
           id="tspan6007"
           sodipodi:role="line"
           style="font-size:18px;line-height:1.25">K</tspan></text>
      <text
         id="text6009"
         y="266.9014"
         x="439.6814"
         style="font-style:normal;font-weight:normal;line-height:0%;font-family:'Times New Roman';-inkscape-font-specification:'Times New Roman';fill:#000000;fill-opacity:1;stroke:none"
         xml:space="preserve"><tspan
           y="266.9014"
           x="439.6814"
           id="tspan6011"
           sodipodi:role="line"
           style="font-size:18px;line-height:1.25">L</tspan></text>
      <text
         id="text6013"
         y="265.26663"
         x="11.057028"
         style="font-style:normal;font-weight:normal;line-height:0%;font-family:'Times New Roman';-inkscape-font-specification:'Times New Roman';fill:#000000;fill-opacity:1;stroke:none"
         xml:space="preserve"><tspan
           y="265.26663"
           x="11.057028"
           id="tspan6015"
           sodipodi:role="line"
           style="font-size:18px;line-height:1.25">poziom 4</tspan></text>
      <text
         xml:space="preserve"
         style="font-style:normal;font-weight:normal;line-height:0%;font-family:'Times New Roman';-inkscape-font-specification:'Times New Roman';fill:#000000;fill-opacity:1;stroke:none"
         x="11.057028"
         y="188.05894"
         id="text6017"><tspan
           sodipodi:role="line"
           id="tspan6019"
           x="11.057028"
           y="188.05894"
           style="font-size:18px;line-height:1.25">poziom 3</tspan></text>
      <text
         id="text6021"
         y="113.29455"
         x="11.057028"
         style="font-style:normal;font-weight:normal;line-height:0%;font-family:'Times New Roman';-inkscape-font-specification:'Times New Roman';fill:#000000;fill-opacity:1;stroke:none"
         xml:space="preserve"><tspan
           y="113.29455"
           x="11.057028"
           id="tspan6023"
           sodipodi:role="line"
           style="font-size:18px;line-height:1.25">poziom 2</tspan></text>
      <text
         xml:space="preserve"
         style="font-style:normal;font-weight:normal;line-height:0%;font-family:'Times New Roman';-inkscape-font-specification:'Times New Roman';fill:#000000;fill-opacity:1;stroke:none"
         x="11.057028"
         y="38.041496"
         id="text6025"><tspan
           sodipodi:role="line"
           id="tspan6027"
           x="11.057028"
           y="38.041496"
           style="font-size:18px;line-height:1.25">poziom 1</tspan></text>
      <text
         id="text6029"
         y="19.46879"
         x="294.39337"
         style="font-style:normal;font-weight:normal;line-height:0%;font-family:'Times New Roman';-inkscape-font-specification:'Times New Roman';fill:#000000;fill-opacity:1;stroke:none"
         xml:space="preserve"><tspan
           y="19.46879"
           x="294.39337"
           id="tspan6031"
           sodipodi:role="line"
           style="font-size:18px;line-height:1.25">korzeń</tspan></text>
      <text
         xml:space="preserve"
         style="font-style:normal;font-weight:normal;line-height:0%;font-family:'Times New Roman';-inkscape-font-specification:'Times New Roman';fill:#ff0000;fill-opacity:1;stroke:none"
         x="310.28784"
         y="71.98967"
         id="text6033"><tspan
           sodipodi:role="line"
           id="tspan6035"
           x="310.28784"
           y="71.98967"
           style="font-size:18px;line-height:1.25">krawędź</tspan></text>
      <text
         id="text6037"
         y="111.38033"
         x="355.20703"
         style="font-style:normal;font-weight:normal;line-height:0%;font-family:'Times New Roman';-inkscape-font-specification:'Times New Roman';fill:#000000;fill-opacity:1;stroke:none"
         xml:space="preserve"><tspan
           y="111.38033"
           x="355.20703"
           id="tspan6039"
           sodipodi:role="line"
           style="font-size:18px;line-height:1.25">wierzchołek</tspan></text>
      <path
         inkscape:original-d="m 81.545578,30.525817 165.164352,0"
         inkscape:path-effect="#path-effect6043"
         id="path6041"
         d="M 81.545578,30.525817 H 246.70993"
         style="fill:none;stroke:#000000;stroke-width:1;stroke-linecap:butt;stroke-linejoin:miter;stroke-miterlimit:4;stroke-opacity:1;stroke-dasharray:4, 4;stroke-dashoffset:0" />
      <path
         inkscape:original-d="m 81.545578,107.23395 102.277502,0"
         inkscape:path-effect="#path-effect6047"
         id="path6045"
         d="M 81.545578,107.23395 H 183.82308"
         style="fill:none;stroke:#000000;stroke-width:1;stroke-linecap:butt;stroke-linejoin:miter;stroke-miterlimit:4;stroke-opacity:1;stroke-dasharray:4, 4;stroke-dashoffset:0" />
      <path
         inkscape:original-d="m 81.545578,181.86888 48.374502,0"
         inkscape:path-effect="#path-effect6051"
         id="path6049"
         d="M 81.545578,181.86888 H 129.92008"
         style="fill:none;stroke:#000000;stroke-width:1;stroke-linecap:butt;stroke-linejoin:miter;stroke-miterlimit:4;stroke-opacity:1;stroke-dasharray:4, 4;stroke-dashoffset:0" />
      <path
         inkscape:original-d="m 81.545578,257.88594 154.798382,0"
         inkscape:path-effect="#path-effect6055"
         id="path6053"
         d="M 81.545578,257.88594 H 236.34396"
         style="fill:none;stroke:#000000;stroke-width:1;stroke-linecap:butt;stroke-linejoin:miter;stroke-miterlimit:4;stroke-opacity:1;stroke-dasharray:4, 4;stroke-dashoffset:0" />
    </g>
  </g>
</svg>
